{
  "embeddedFonts" :
  [["migu-1p-regular.ttf","migu-1p-regular.ttf","migu-1p-regular.ttf","migu-1p-regular.ttf"]],
  "fontsAlias" : {
    "stdFont": "Migu 1P Regular",
    "stdBold": "Migu 1P Regular",
    "stdItalic": "Migu 1P Regular",
    "stdBoldItalic": "Migu 1P Regular",
    "stdMono": "Migu 1M Regular"
  },
  "pageSetup": {
      "width": "16cm",
      "height": "9cm",
      "margin-top": "2mm",
      "margin-bottom": "2mm",
      "margin-left": "5mm",
      "margin-right": "5mm",
      "margin-gutter": "0cm",
      "spacing-header": "2mm",
      "spacing-footer": "2mm",
      "firstTemplate": "coverPage"
  },
  "_pageSetup": {
      "width": "16cm",
      "height": "9cm",
      "margin-top": "0cm",
      "margin-bottom": "0cm",
      "margin-left": "0cm",
      "margin-right": "0cm",
      "margin-gutter": "0cm",
      "spacing-header": "5mm",
      "spacing-footer": "5mm",
      "firstTemplate": "coverPage"
  },
  "pageTemplates" : {
      "coverPage": {
          "frames": [
              ["0cm", "0cm", "100%", "60%"]
          ],
          "showHeader" : false,
          "showFooter" : false
      },
      "cutePage": {
          "frames": [
              ["0", "0", "100%", "100%"]
          ],
	  "background" : "/usr/lib/rst2pdf/background.svg"
      }
  },
  "styles" : [
              ["base" , {
      		         "wordWrap": "CJK"
   	                }
              ],
              ["literal" , {
      		            "wordWrap": "None"
      			   }
	      ]
    ]
}
